<?xml version="1.0" encoding="UTF-8"?>
<!DOCTYPE svg PUBLIC "-//W3C//DTD SVG 1.1//EN" "http://www.w3.org/Graphics/SVG/1.1/DTD/svg11.dtd">
<!-- Creator: CorelDRAW X6 -->
<svg xmlns="http://www.w3.org/2000/svg" xml:space="preserve" width="83.6414mm" height="83.6415mm" version="1.1" shape-rendering="geometricPrecision" text-rendering="geometricPrecision" image-rendering="optimizeQuality" fill-rule="evenodd" clip-rule="evenodd"
viewBox="0 0 6762 6763"
 xmlns:xlink="http://www.w3.org/1999/xlink">
 <g id="Layer_x0020_1">
  <metadata id="CorelCorpID_0Corel-Layer"/>
  <path fill="#0082D3" fill-rule="nonzero" d="M3381 0c-1865,0 -3381,1516 -3381,3381 0,1865 1516,3381 3381,3381 1865,0 3381,-1516 3381,-3381 0,-1865 -1516,-3381 -3381,-3381zm-1987 5506c0,-186 49,-422 251,-470 365,-89 649,-195 860,-308 203,276 527,438 884,438 357,0 689,-178 900,-462 219,114 511,227 900,324 65,16 243,65 251,405 -527,527 -1257,851 -2060,851 -770,8 -1468,-292 -1987,-778zm2546 -1930c-130,146 -308,219 -543,227 0,0 -8,0 -8,0 -235,0 -414,-73 -543,-219 -349,-389 -268,-1151 -268,-1160 0,-8 0,-8 0,-16 32,-795 608,-851 778,-851 8,0 16,0 24,0 8,0 16,0 16,0 130,-8 770,8 803,851 0,8 0,8 0,16 32,203 32,827 -259,1151zm-568 697c8,0 8,0 16,0l8 0c0,0 8,0 8,0 8,0 8,0 16,0 114,0 211,-16 316,-41 41,65 97,138 170,211 -122,162 -308,259 -511,259 -195,0 -373,-89 -495,-235 89,-81 154,-154 195,-227 81,16 178,24 276,32zm2433 714c-97,-211 -276,-349 -511,-414 -738,-186 -1046,-414 -1143,-551 49,-41 97,-81 138,-130 470,-527 397,-1411 389,-1516 -49,-1054 -827,-1305 -1281,-1297 -462,-16 -1232,243 -1281,1297 -8,97 -81,989 389,1516 49,57 105,105 162,154 -122,138 -430,357 -1135,535 -251,65 -430,227 -527,478 -332,-470 -527,-1046 -527,-1670 0,-1605 1305,-2911 2911,-2911 1605,0 2911,1305 2911,2911 -8,584 -186,1135 -495,1597z"/>
 </g>
</svg>
